@startuml

package RawTelemetry {

  namespace Domain {

    enum RawTelemetryFilePhase {
      none,
      syncing,
      eof
    }

    interface RawTelemetry {
      + serial: bigint
      + time: bigint
      + sensorId: int
      + messageType: int
      + content: byte[]
    }

    interface RawTelemetryRepository {
      + insert(clientId: string, filename: string, eof: boolean, items: RawTelemetry[]): void
      + query(rawTelemetryFileId: int, order: string, offset: int, limit: int): RawTelemetry[]
    }

    RawTelemetryRepository --> RawTelemetry
    RawTelemetryRepository --> RawTelemetryFilePhase
  }

  namespace Db {
    class RawTelemetryRepository {
    }

    Domain.RawTelemetryRepository <|-up- RawTelemetryRepository
  }

}

@enduml
