@startuml

entity RawTelemetryFile {
  * id
  --
  * clientId
  * filename
  * phase
  * revision
}

entity RawTelemetry {
  * serial
  * time
  --
  messageType
  sensorId
  content
}

RawTelemetryFile ||--o{ RawTelemetry

@enduml
