@startuml

package SensorGovernor {

interface SensorApi {
+ sensor_send_measurement(measurement: Measurement): void
+ sensor_send_request_from_isr(id: SensorId): void
+ sensor_get_time(): SensorTime
}

interface Sensor {
  + init(sensor_api: SensorApi, sensor_id: SensorId, arg: any): void
  + deinit(arg: any): void
  + start(arg: any): void
  + stop_and_wait(arg: any): void
  + read(arg: any): Measurement
  + read_return(returned: Measurement, arg: any): void
}

class SensorDescriptor {
  + id: SensorId
  + arg: any
}

SensorDescriptor o-- Sensor

class SensorGovernor {
- sensor_request_queue: QueueHandle_t
- sensor_task_handle: TaskHandle_t
- sensor_ring: RingbufHandle_t
- stopped_event_group: EventGroupHandle_t
+ create(sensors: SensorDescriptor[], count: int): void
+ delete(): void
+ start(): void
+ stop_and_wait(): void
- stop(): void
- wait_stop(): void
- sensor_task(param: any): void
- place_measurement_on_the_ring(measurement: Measurement): void
- create_sensor_ring(): void
- delete_sensor_ring(): void
- create_request_queue()
- delete_request_queue()
}

SensorApi <|-- SensorGovernor
MeasurementSource <|-- SensorGovernor
SensorGovernor "1" o- "0..*" SensorDescriptor

}

package Measurement {

interface MeasurementSource {
+ read_measurement(TickType_t ticks_to_wait): Measurement
+ return_measurement(measurement: Measurement): void
}

class RegistrationItem {
+ handler: MeasurementHandler
+ handler_arg: any
}

interface MeasurementHandler <<function>> {
  measurement_handler(measurement: Measurement, arg: any): void
}

interface MeasurementLoopAPI {

+ register(handler: MeasurementHandler, arg: any): bool
+ unregister(handler: MeasurementHandler, arg: any): bool
}

class MeasurementLoop {

-loop_task_handle: TaskHandle_t
- <<volatile>> stopped: bool
-stopped_event_group: EventGroupHandle_t
-registration_list: LinkedList<RegistrationItem>

+ create(source: MeasurementSource): void
+ delete(): void
+ start(): bool
+ stop_and_wait(): void
- loop_task(): void

}

MeasurementLoop o-- MeasurementSource
MeasurementLoopAPI <|-- MeasurementLoop
}

package TelemetryWriter {

class TelemetryWriter {

- writer_task: ???
+ <<create>> create(storage_mount: string, loop_api: MeasurementLoopAPI): ErrorResult
+ <<destroy>> delete(): ErrorResult
+ start(): void
+ stop(): void
}

TelemetryWriter o-- MeasurementLoopAPI
TelemetryWriter o-- Storage
TelemetryWriter *-- MeasurementWriter

class MeasurementWriter {
+ begin_file(filename: string): void
+ write(measurement: Measurement): void
+ end_file(): void
}

MeasurementHandler <|-- TelemetryWriter

}

package Storage {

class Storage {
}

}

@enduml
