@startuml

package TelemetryWriter {

  class TelemetryWriter {
    + create(config: TelemetryWriterConfig, fsm: TelemetryWriterFSM): void
    + delete(): void
    + start(): bool
    + stop_and_wait(): void
  }

  class TelemetryWriterFSM {
    + create(mount_point: string, extension: string, measurement_loop: MeasurementLoopAPI, serializer: Serializer)
    + delete()
    + init(): void
    + proceed(): void
    + stop(): void
  }

  enum TelemetryWriterFSMPhase {
    PHASE_NONE
    PHASE_INIT
    PHASE_START
    PHASE_ERROR_CREATING_FILE
    PHASE_FILE_CREATED
    PHASE_WRITING
    PHASE_LOST_FILE
    PHASE_CLOSED
  }

  TelemetryWriter o-- TelemetryWriterFSM
  TelemetryWriterFSM --> TelemetryWriterFSMPhase: <<phase>>
}

@enduml
