@startuml

package MainController {

  class MainController {
    + start(message_queue: MessageQueueHandle): void
    + stop(message_queue: MessageQueueHandle): void
  }

  class MainControllerFSM {
    + create(view_api: ViewApiHandle, dashboard_view: DashboardView, telemetry_view: TelemetryViewHandle, sync: SyncHandle): void
    + delete()
    + start(): void
    + stop(): void
    + push_button_pressed(): void
  }

  MainController --> MainControllerFSM: <<control>>
  MainControllerFSM o-- DashboardView

  class DashboardView {
    + init(): void
    + update(model: DashboarModel): void
  }

  DashboardView *- DashboardModel

  class DashboardModel {
    + phase: DashboardPhase
  }

  DashboardModel -> DashboardPhase

  enum DashboardPhase {
    STANDBY
    RUNNING
  }

  interface ViewPlugin {
  }

  DashboardView -|> ViewPlugin
}

@enduml
