(module BMP280 (layer F.Cu) (tedit 5D3C4C43)
  (fp_text reference REF** (at 0.254 -5.588) (layer F.SilkS)
    (effects (font (size 1 1) (thickness 0.15)))
  )
  (fp_text value BMP280 (at 0.254 6.604) (layer F.Fab)
    (effects (font (size 1 1) (thickness 0.15)))
  )
  (fp_line (start -5.588 5.588) (end 5.588 5.588) (layer F.Fab) (width 0.12))
  (fp_line (start -5.588 5.588) (end -5.588 -4.572) (layer F.Fab) (width 0.12))
  (fp_line (start -5.588 -4.572) (end 5.588 -4.572) (layer F.Fab) (width 0.12))
  (fp_line (start 5.588 -4.572) (end 5.588 5.588) (layer F.Fab) (width 0.12))
  (fp_line (start -5.588 -4.572) (end 5.588 -4.572) (layer F.SilkS) (width 0.12))
  (fp_line (start 5.588 -4.572) (end 5.588 5.588) (layer F.SilkS) (width 0.12))
  (fp_line (start 5.588 5.588) (end -5.588 5.588) (layer F.SilkS) (width 0.12))
  (fp_line (start -5.588 5.588) (end -5.588 -4.572) (layer F.SilkS) (width 0.12))
  (fp_line (start -4.826 2.794) (end 4.826 2.794) (layer F.SilkS) (width 0.12))
  (fp_line (start 4.826 2.794) (end 4.826 4.826) (layer F.SilkS) (width 0.12))
  (fp_line (start 4.826 4.826) (end -4.826 4.826) (layer F.SilkS) (width 0.12))
  (fp_line (start -4.826 4.826) (end -4.826 2.794) (layer F.SilkS) (width 0.12))
  (pad 1 thru_hole circle (at -3.81 3.81) (size 1.524 1.524) (drill 0.762) (layers *.Cu *.Mask))
  (pad 2 thru_hole circle (at -1.27 3.81) (size 1.524 1.524) (drill 0.762) (layers *.Cu *.Mask))
  (pad 3 thru_hole circle (at 1.27 3.81) (size 1.524 1.524) (drill 0.762) (layers *.Cu *.Mask))
  (pad 4 thru_hole circle (at 3.81 3.81) (size 1.524 1.524) (drill 0.762) (layers *.Cu *.Mask))
)
