(module GY-9250 (layer F.Cu) (tedit 5D3C4A8A)
  (fp_text reference REF** (at 0 -8.382) (layer F.SilkS)
    (effects (font (size 1 1) (thickness 0.15)))
  )
  (fp_text value GY-9250 (at -0.508 9.906) (layer F.Fab)
    (effects (font (size 1 1) (thickness 0.15)))
  )
  (fp_line (start -13.208 8.382) (end 13.208 8.382) (layer F.Fab) (width 0.12))
  (fp_line (start -13.208 8.382) (end -13.208 -7.366) (layer F.Fab) (width 0.12))
  (fp_line (start -13.208 -7.366) (end 13.208 -7.366) (layer F.Fab) (width 0.12))
  (fp_line (start 13.208 -7.366) (end 13.208 8.382) (layer F.Fab) (width 0.12))
  (fp_line (start -13.208 -7.366) (end 13.208 -7.366) (layer F.SilkS) (width 0.12))
  (fp_line (start 13.208 -7.366) (end 13.208 8.382) (layer F.SilkS) (width 0.12))
  (fp_line (start 13.208 8.382) (end -13.208 8.382) (layer F.SilkS) (width 0.12))
  (fp_line (start -13.208 8.382) (end -13.208 -7.366) (layer F.SilkS) (width 0.12))
  (fp_line (start -12.446 5.588) (end 12.446 5.588) (layer F.SilkS) (width 0.12))
  (fp_line (start 12.446 5.588) (end 12.446 7.62) (layer F.SilkS) (width 0.12))
  (fp_line (start 12.446 7.62) (end -12.446 7.62) (layer F.SilkS) (width 0.12))
  (fp_line (start -12.446 7.62) (end -12.446 5.588) (layer F.SilkS) (width 0.12))
  (pad 1 thru_hole circle (at -11.43 6.604) (size 1.524 1.524) (drill 0.762) (layers *.Cu *.Mask))
  (pad 2 thru_hole circle (at -8.89 6.604) (size 1.524 1.524) (drill 0.762) (layers *.Cu *.Mask))
  (pad 3 thru_hole circle (at -6.35 6.604) (size 1.524 1.524) (drill 0.762) (layers *.Cu *.Mask))
  (pad 4 thru_hole circle (at -3.81 6.604) (size 1.524 1.524) (drill 0.762) (layers *.Cu *.Mask))
  (pad 5 thru_hole circle (at -1.27 6.604) (size 1.524 1.524) (drill 0.762) (layers *.Cu *.Mask))
  (pad 6 thru_hole circle (at 1.27 6.604) (size 1.524 1.524) (drill 0.762) (layers *.Cu *.Mask))
  (pad 7 thru_hole circle (at 3.81 6.604) (size 1.524 1.524) (drill 0.762) (layers *.Cu *.Mask))
  (pad 8 thru_hole circle (at 6.35 6.604) (size 1.524 1.524) (drill 0.762) (layers *.Cu *.Mask))
  (pad 9 thru_hole circle (at 8.89 6.604) (size 1.524 1.524) (drill 0.762) (layers *.Cu *.Mask))
  (pad 10 thru_hole circle (at 11.43 6.604) (size 1.524 1.524) (drill 0.762) (layers *.Cu *.Mask))
)
