M48
; DRILL file {KiCad 5.1.3-ffb9f22~84~ubuntu18.04.1} date 2019. aug. 1., csütörtök, 16:49:57 CEST
; FORMAT={2:4/ absolute / inch / suppress leading zeros}
; #@! TF.CreationDate,2019-08-01T16:49:57+02:00
; #@! TF.GenerationSoftware,Kicad,Pcbnew,5.1.3-ffb9f22~84~ubuntu18.04.1
FMAT,2
INCH,TZ
T1C0.0157
T2C0.0300
T3C0.0315
T4C0.0394
%
G90
G05
T1
X25800Y-15200
T2
X39800Y-22100
X40800Y-22100
X41800Y-22100
X42800Y-22100
X27400Y-22100
X27400Y-23100
X27400Y-24100
X27400Y-25100
X27400Y-26100
X27400Y-27100
X21800Y-19400
X22800Y-19400
X23800Y-19400
X24800Y-19400
X25800Y-11400
X25800Y-19400
X26800Y-11400
X26800Y-19400
X27800Y-11400
X27800Y-19400
X28800Y-11400
X28800Y-19400
X29800Y-11400
X29800Y-19400
X30800Y-11400
X30800Y-19400
X31800Y-11400
X31800Y-19400
X32800Y-11400
X32800Y-19400
X33800Y-11400
X33800Y-19400
X34800Y-11400
X34800Y-19400
X35800Y-11400
X35800Y-19400
X36800Y-11400
X36800Y-19400
X29100Y-22100
X30100Y-22100
X31100Y-22100
X32100Y-22100
X33100Y-22100
X34100Y-22100
X35100Y-22100
X36100Y-22100
X37100Y-22100
X38100Y-22100
X47200Y-21900
X47200Y-22900
X47200Y-23900
T3
X39800Y-28600
X42800Y-28600
X34500Y-28600
X37500Y-28600
T4
X48100Y-13300
X48100Y-14300
X48100Y-15300
X48100Y-16300
X48100Y-17300
X45750Y-13300
X45750Y-14300
X45750Y-15300
X45750Y-16300
X45750Y-17300
X43100Y-11400
X43100Y-12400
X43100Y-13400
X43100Y-14400
X43100Y-15400
X43100Y-16400
X43100Y-17400
X43100Y-18400
T0
M30
