EESchema Schematic File Version 4
LIBS:pcb2-cache
EELAYER 30 0
EELAYER END
$Descr A4 11693 8268
encoding utf-8
Sheet 1 1
Title "Avisense"
Date ""
Rev ""
Comp "Szarvas Zoltán"
Comment1 "V0"
Comment2 ""
Comment3 ""
Comment4 ""
$EndDescr
$Comp
L Local:Adafruit_HUZZAH32_ESP32_Feather A1
U 1 1 5D26177A
P 1950 1850
F 0 "A1" H 1975 2785 50  0000 C CNN
F 1 "Adafruit_HUZZAH32_ESP32_Feather" H 1975 2708 31  0000 C CNN
F 2 "LocalFootprints:Adafruit_HUZZAH32_ESP32_Feather" H 1850 2200 50  0001 C CNN
F 3 "" H 1850 2200 50  0001 C CNN
	1    1950 1850
	1    0    0    -1  
$EndComp
$Comp
L power:GND #PWR08
U 1 1 5D29095A
P 1950 2850
F 0 "#PWR08" H 1950 2600 50  0001 C CNN
F 1 "GND" H 1955 2677 50  0000 C CNN
F 2 "" H 1950 2850 50  0001 C CNN
F 3 "" H 1950 2850 50  0001 C CNN
	1    1950 2850
	1    0    0    -1  
$EndComp
$Comp
L Local:NEO-7M-GPS #A1
U 1 1 5D275E88
P 2850 4850
F 0 "#A1" H 2650 5300 50  0000 C CNN
F 1 "NEO-7M-GPS" H 2100 5000 50  0000 C CNN
F 2 "" H 2850 4850 50  0001 C CNN
F 3 "" H 2850 4850 50  0001 C CNN
	1    2850 4850
	-1   0    0    1   
$EndComp
$Comp
L power:+3.3V #PWR012
U 1 1 5D2BE953
P 4850 2150
F 0 "#PWR012" H 4850 2000 50  0001 C CNN
F 1 "+3.3V" H 4865 2323 50  0000 C CNN
F 2 "" H 4850 2150 50  0001 C CNN
F 3 "" H 4850 2150 50  0001 C CNN
	1    4850 2150
	-1   0    0    1   
$EndComp
Wire Wire Line
	4850 2150 4850 2100
$Comp
L power:GND #PWR011
U 1 1 5D2BFD7C
P 4850 900
F 0 "#PWR011" H 4850 650 50  0001 C CNN
F 1 "GND" H 4855 727 50  0000 C CNN
F 2 "" H 4850 900 50  0001 C CNN
F 3 "" H 4850 900 50  0001 C CNN
	1    4850 900 
	-1   0    0    1   
$EndComp
$Comp
L power:+3.3V #PWR014
U 1 1 5D2B9682
P 6300 1900
F 0 "#PWR014" H 6300 1750 50  0001 C CNN
F 1 "+3.3V" H 6315 2073 50  0000 C CNN
F 2 "" H 6300 1900 50  0001 C CNN
F 3 "" H 6300 1900 50  0001 C CNN
	1    6300 1900
	-1   0    0    1   
$EndComp
Wire Wire Line
	6300 1900 6300 1850
$Comp
L power:GND #PWR013
U 1 1 5D2BB079
P 6300 900
F 0 "#PWR013" H 6300 650 50  0001 C CNN
F 1 "GND" H 6305 727 50  0000 C CNN
F 2 "" H 6300 900 50  0001 C CNN
F 3 "" H 6300 900 50  0001 C CNN
	1    6300 900 
	-1   0    0    1   
$EndComp
$Comp
L Local:BMP280-Module A5
U 1 1 5D373579
P 9350 1250
F 0 "A5" H 9450 1550 50  0000 L CNN
F 1 "BMP280-Module" H 9550 950 50  0000 L CNN
F 2 "LocalFootprints:BMP280" H 9100 1250 50  0001 C CNN
F 3 "" H 9100 1250 50  0001 C CNN
	1    9350 1250
	1    0    0    -1  
$EndComp
$Comp
L power:GND #PWR018
U 1 1 5D375431
P 9350 1800
F 0 "#PWR018" H 9350 1550 50  0001 C CNN
F 1 "GND" H 9355 1627 50  0000 C CNN
F 2 "" H 9350 1800 50  0001 C CNN
F 3 "" H 9350 1800 50  0001 C CNN
	1    9350 1800
	1    0    0    -1  
$EndComp
Wire Wire Line
	9350 1700 9350 1800
$Comp
L power:+3.3V #PWR017
U 1 1 5D376285
P 9350 800
F 0 "#PWR017" H 9350 650 50  0001 C CNN
F 1 "+3.3V" H 9365 973 50  0000 C CNN
F 2 "" H 9350 800 50  0001 C CNN
F 3 "" H 9350 800 50  0001 C CNN
	1    9350 800 
	1    0    0    -1  
$EndComp
Wire Wire Line
	9350 800  9350 900 
$Comp
L Local:Airspeed-sensor-V20-DIYdrones A4
U 1 1 5D38A219
P 7850 1250
F 0 "A4" H 7700 1550 50  0000 L CNN
F 1 "Airspeed-sensor-V20-DIYdrones" H 8078 1180 20  0000 L CNN
F 2 "LocalFootprints:V20" H 7500 1350 50  0001 C CNN
F 3 "" H 7500 1350 50  0001 C CNN
	1    7850 1250
	1    0    0    -1  
$EndComp
$Comp
L power:GND #PWR016
U 1 1 5D38C4BC
P 7850 1700
F 0 "#PWR016" H 7850 1450 50  0001 C CNN
F 1 "GND" H 7855 1527 50  0000 C CNN
F 2 "" H 7850 1700 50  0001 C CNN
F 3 "" H 7850 1700 50  0001 C CNN
	1    7850 1700
	1    0    0    -1  
$EndComp
Wire Wire Line
	7850 1700 7850 1650
$Comp
L power:+3.3V #PWR015
U 1 1 5D39A84F
P 7850 800
F 0 "#PWR015" H 7850 650 50  0001 C CNN
F 1 "+3.3V" H 7865 973 50  0000 C CNN
F 2 "" H 7850 800 50  0001 C CNN
F 3 "" H 7850 800 50  0001 C CNN
	1    7850 800 
	1    0    0    -1  
$EndComp
Wire Wire Line
	7850 800  7850 900 
$Comp
L Local:SD A3
U 1 1 5D2A22F0
P 6250 1400
F 0 "A3" H 6400 1800 50  0000 R CNN
F 1 "SD" H 6400 950 50  0000 R CNN
F 2 "LocalFootprints:SD" H 6700 1400 50  0001 C CNN
F 3 "" H 6700 1400 50  0001 C CNN
	1    6250 1400
	-1   0    0    1   
$EndComp
$Comp
L Connector:Conn_01x05_Female #J1
U 1 1 5D3D0AA8
P 2400 5000
F 0 "#J1" H 2428 5026 50  0000 L CNN
F 1 "Conn_01x05_Female" H 2200 4700 50  0000 L CNN
F 2 "" H 2400 5000 50  0001 C CNN
F 3 "~" H 2400 5000 50  0001 C CNN
	1    2400 5000
	-1   0    0    1   
$EndComp
Wire Wire Line
	1400 5200 1150 5200
Wire Wire Line
	2600 5000 2900 5000
Wire Wire Line
	2600 4900 2900 4900
Wire Wire Line
	2600 4800 2900 4800
Wire Wire Line
	3150 5350 2600 5350
Wire Wire Line
	2600 5350 2600 5200
Wire Wire Line
	3150 4450 2800 4450
Wire Wire Line
	2800 4450 2800 5100
Wire Wire Line
	2800 5100 2600 5100
$Comp
L power:+3.3V #PWR04
U 1 1 5D4509DE
P 1250 4250
F 0 "#PWR04" H 1250 4100 50  0001 C CNN
F 1 "+3.3V" V 1265 4378 50  0000 L CNN
F 2 "" H 1250 4250 50  0001 C CNN
F 3 "" H 1250 4250 50  0001 C CNN
	1    1250 4250
	0    -1   -1   0   
$EndComp
Wire Wire Line
	1400 4250 1250 4250
Wire Wire Line
	1250 4150 1400 4150
$Comp
L power:GND #PWR03
U 1 1 5D3F3D85
P 1250 4150
F 0 "#PWR03" H 1250 3900 50  0001 C CNN
F 1 "GND" V 1255 4022 50  0000 R CNN
F 2 "" H 1250 4150 50  0001 C CNN
F 3 "" H 1250 4150 50  0001 C CNN
	1    1250 4150
	0    1    1    0   
$EndComp
$Comp
L Connector:Conn_01x08_Male J3
U 1 1 5D3F7E61
P 1600 6200
F 0 "J3" H 1708 6681 50  0000 C CNN
F 1 "Display Connector" H 1708 6590 50  0000 C CNN
F 2 "Connector_PinHeader_2.54mm:PinHeader_1x08_P2.54mm_Vertical" H 1600 6200 50  0001 C CNN
F 3 "~" H 1600 6200 50  0001 C CNN
	1    1600 6200
	-1   0    0    1   
$EndComp
$Comp
L power:+3.3V #PWR06
U 1 1 5D3F92D7
P 1250 6500
F 0 "#PWR06" H 1250 6350 50  0001 C CNN
F 1 "+3.3V" V 1265 6628 50  0000 L CNN
F 2 "" H 1250 6500 50  0001 C CNN
F 3 "" H 1250 6500 50  0001 C CNN
	1    1250 6500
	0    -1   -1   0   
$EndComp
$Comp
L power:GND #PWR05
U 1 1 5D3F97E9
P 1250 6400
F 0 "#PWR05" H 1250 6150 50  0001 C CNN
F 1 "GND" V 1255 6272 50  0000 R CNN
F 2 "" H 1250 6400 50  0001 C CNN
F 3 "" H 1250 6400 50  0001 C CNN
	1    1250 6400
	0    1    1    0   
$EndComp
Wire Wire Line
	1400 6500 1250 6500
Wire Wire Line
	1400 6400 1250 6400
$Comp
L Connector:Conn_01x05_Male J1
U 1 1 5D44DBFC
P 1600 4050
F 0 "J1" H 1572 3982 50  0000 R CNN
F 1 "Rotary Encoder Connector" H 1572 4073 50  0000 R CNN
F 2 "Connector_PinHeader_2.54mm:PinHeader_1x05_P2.54mm_Vertical" H 1600 4050 50  0001 C CNN
F 3 "~" H 1600 4050 50  0001 C CNN
	1    1600 4050
	-1   0    0    1   
$EndComp
$Comp
L Connector:Conn_01x05_Male J2
U 1 1 5D3CF27B
P 1600 5000
F 0 "J2" H 1708 5381 50  0000 C CNN
F 1 "GPS Connector" H 1708 5290 50  0000 C CNN
F 2 "Connector_PinHeader_2.54mm:PinHeader_1x05_P2.54mm_Vertical" H 1600 5000 50  0001 C CNN
F 3 "~" H 1600 5000 50  0001 C CNN
	1    1600 5000
	-1   0    0    1   
$EndComp
Text Label 2550 1750 0    50   ~ 0
DISPLAY_DC
Text Label 1400 6000 2    50   ~ 0
DISPLAY_DC
Text Label 1400 6100 2    50   ~ 0
DISPLAY_CS
Text Label 2550 2050 0    50   ~ 0
DISPLAY_CS
Text Label 1400 5900 2    50   ~ 0
DISPLAY_RST
Text Label 2550 1550 0    50   ~ 0
DISPLAY_RST
Text Label 1400 1550 2    50   ~ 0
DISPLAY_BUSY
Text Label 1400 5800 2    50   ~ 0
DISPLAY_BUSY
Text Label 1400 2150 2    50   ~ 0
SPI_SCK
Text Label 6000 1350 2    50   ~ 0
SPI_SCK
Text Label 1400 6300 2    50   ~ 0
SPI_SCK
Text Label 1400 6200 2    50   ~ 0
SPI_MOSI
Text Label 1400 2250 2    50   ~ 0
SPI_MOSI
Text Label 6000 1450 2    50   ~ 0
SPI_MOSI
Text Label 1400 2350 2    50   ~ 0
SPI_MISO
Text Label 6000 1250 2    50   ~ 0
SPI_MISO
Text Label 1400 2650 2    50   ~ 0
SD_CS
Text Label 6000 1550 2    50   ~ 0
SD_CS
Text Label 1400 1750 2    50   ~ 0
AIRSPEED_ANALOG
Text Label 7600 1250 2    50   ~ 0
AIRSPEED_ANALOG
Text Label 2550 2150 0    50   ~ 0
I2C_SCL
Text Label 2550 2250 0    50   ~ 0
I2C_SDA
Text Label 9100 1250 2    50   ~ 0
I2C_SCL
Text Label 9100 1350 2    50   ~ 0
I2C_SDA
Text Label 4400 1650 2    50   ~ 0
I2C_SDA
Text Label 4400 1750 2    50   ~ 0
I2C_SCL
Text Label 1400 1950 2    50   ~ 0
GYRO_INT
Text Label 4400 1250 2    50   ~ 0
GYRO_INT
Text Label 1400 2050 2    50   ~ 0
GPS_PPS
Text Label 1400 4800 2    50   ~ 0
GPS_PPS
Text Label 1400 2450 2    50   ~ 0
GPS_RX
Text Label 1400 4900 2    50   ~ 0
GPS_RX
Text Label 1400 2550 2    50   ~ 0
GPS_TX
Text Label 1400 5000 2    50   ~ 0
GPS_TX
Wire Wire Line
	1150 5100 1400 5100
$Comp
L power:GND #PWR01
U 1 1 5D48F14A
P 1150 5100
F 0 "#PWR01" H 1150 4850 50  0001 C CNN
F 1 "GND" V 1155 4972 50  0000 R CNN
F 2 "" H 1150 5100 50  0001 C CNN
F 3 "" H 1150 5100 50  0001 C CNN
	1    1150 5100
	0    1    1    0   
$EndComp
$Comp
L power:+3.3V #PWR02
U 1 1 5D48FEAB
P 1150 5200
F 0 "#PWR02" H 1150 5050 50  0001 C CNN
F 1 "+3.3V" V 1165 5328 50  0000 L CNN
F 2 "" H 1150 5200 50  0001 C CNN
F 3 "" H 1150 5200 50  0001 C CNN
	1    1150 5200
	0    -1   -1   0   
$EndComp
Text Label 2550 1850 0    50   ~ 0
ROTARY_PUSH
Text Label 1400 3950 2    50   ~ 0
ROTARY_PUSH
Text Label 2550 1650 0    50   ~ 0
ROTARY_A
Text Label 1400 3850 2    50   ~ 0
ROTARY_A
Text Label 2550 1950 0    50   ~ 0
ROTARY_B
Text Label 1400 4050 2    50   ~ 0
ROTARY_B
$Comp
L power:+3.3V #PWR07
U 1 1 5D4BBE5D
P 1400 1250
F 0 "#PWR07" H 1400 1100 50  0001 C CNN
F 1 "+3.3V" V 1415 1378 50  0000 L CNN
F 2 "" H 1400 1250 50  0001 C CNN
F 3 "" H 1400 1250 50  0001 C CNN
	1    1400 1250
	0    -1   -1   0   
$EndComp
Wire Notes Line
	3900 3300 450  3300
Text Notes 6800 650  0    89   ~ 0
Sensors
Wire Notes Line
	3900 2500 11200 2500
Text Notes 1500 3500 0    89   ~ 0
External Connectors
Wire Notes Line
	3900 450  3900 7800
Text Notes 1500 700  0    89   ~ 0
Microcontroller
$Comp
L Local:GY-9250 A2
U 1 1 5D262D97
P 5300 2000
F 0 "A2" H 6000 2100 50  0000 C CNN
F 1 "GY-9250" H 5500 2100 50  0000 C CNN
F 2 "LocalFootprints:GY-9250" H 5300 2000 50  0001 C CNN
F 3 "" H 5300 2000 50  0001 C CNN
	1    5300 2000
	-1   0    0    1   
$EndComp
$Comp
L Device:R R1
U 1 1 5D41B191
P 3150 2550
F 0 "R1" V 3050 2550 50  0000 C CNN
F 1 "3.3k" V 3150 2550 50  0000 C CNN
F 2 "Resistor_THT:R_Axial_DIN0207_L6.3mm_D2.5mm_P7.62mm_Horizontal" V 3080 2550 50  0001 C CNN
F 3 "~" H 3150 2550 50  0001 C CNN
	1    3150 2550
	0    1    1    0   
$EndComp
$Comp
L Device:R R2
U 1 1 5D41B920
P 3150 2800
F 0 "R2" V 3050 2800 50  0000 C CNN
F 1 "3.3k" V 3150 2800 50  0000 C CNN
F 2 "Resistor_THT:R_Axial_DIN0207_L6.3mm_D2.5mm_P7.62mm_Horizontal" V 3080 2800 50  0001 C CNN
F 3 "~" H 3150 2800 50  0001 C CNN
	1    3150 2800
	0    1    1    0   
$EndComp
$Comp
L power:+3.3V #PWR09
U 1 1 5D41D004
P 3400 2550
F 0 "#PWR09" H 3400 2400 50  0001 C CNN
F 1 "+3.3V" V 3415 2678 50  0000 L CNN
F 2 "" H 3400 2550 50  0001 C CNN
F 3 "" H 3400 2550 50  0001 C CNN
	1    3400 2550
	0    1    1    0   
$EndComp
$Comp
L power:+3.3V #PWR010
U 1 1 5D41DA48
P 3400 2800
F 0 "#PWR010" H 3400 2650 50  0001 C CNN
F 1 "+3.3V" V 3415 2928 50  0000 L CNN
F 2 "" H 3400 2800 50  0001 C CNN
F 3 "" H 3400 2800 50  0001 C CNN
	1    3400 2800
	0    1    1    0   
$EndComp
Wire Wire Line
	3300 2550 3400 2550
Wire Wire Line
	3300 2800 3400 2800
Wire Wire Line
	3000 2550 2850 2550
Wire Wire Line
	3000 2800 2850 2800
Text Label 2850 2550 2    50   ~ 0
I2C_SCL
Text Label 2850 2800 2    50   ~ 0
I2C_SDA
$EndSCHEMATC
